1||
2||
3||
4||
5||
6||
7||
8|Brochures|
9||
10||
11|Cards - Italian|
12|Cards - Dutch|
13|Cards - French|
14|Cards - Indian|
15||
16||
17|Apparel, Bumper Stickers, Decals & More|
18||
19||
20|DHSC Lapel Pins|
21||
22||
23||
24||
25||
26||
27||
28||
29||
30||
