CJ	advertiser-name	cid	event-date	sale-amount	commission-amount	sid	description	sale-currency	commission-currency
CJ	Overstock.com	2626374	2014-08-21	39.99	0.39	3275364	Sale : 1498273565	USD	USD
CJ	FlowerDelivery.com	1407656	2014-08-22	89.99	18.00	714798	Sale : 1498430383	USD	USD
