CJ	advertiser-name	cid	event-date	sale-amount	commission-amount	sid	description	sale-currency	commission-currency
CJ	Skype Affiliate Program	1562723	2014-05-21	13.71	3.43	3719049	Skype Credit : 1470081478	USD	USD
CJ	Staples	1631023	2014-05-20	53.99	1.08	3961621	Shipped Online Sale : 1470124103	USD	USD
CJ	Staples	1631023	2014-05-21	153.95	7.70	2913613	Shipped Online Sale : 1470126092	USD	USD
CJ	Factory Outlet Store & GoGoTech Stores	1918541	2014-05-22	32.95	1.32	3127951	FactoryOutletStore.com - Online Purchase : 1470208868	USD	USD
