CJ	advertiser-name	cid	event-date	sale-amount	commission-amount	sid	description	sale-currency	commission-currency
CJ	Staples	1631023	2015-01-06	31.99	0.96	158518	Shipped Online Sale : 1547723831	USD	USD
CJ	Hotels.com	1702763	2014-11-27	549.28	30.21	3210935	Confirmed Venere Hotel  : 1548129309	USD	USD
