CJ	advertiser-name	cid	event-date	sale-amount	commission-amount	sid	description	sale-currency	commission-currency
CJ	Indigo Books & Music	1666237	2016-03-05	-9.38	-0.47	5857847	Item based Sale : 1692123927	USD	USD
CJ	Indigo Books & Music	1666237	2016-03-05	-7.88	-0.40	5857847	Item based Sale : 1692123927	USD	USD
CJ	Indigo Books & Music	1666237	2016-03-05	-7.95	-0.40	5857847	Item based Sale : 1692123927	USD	USD
