CJ	advertiser-name	cid	event-date	sale-amount	commission-amount	sid	description	sale-currency	commission-currency
CJ	123Inkjets.com	418963	2016-03-16	76.57	21.44	2913613	123inkjets.com - Return Customer Purchase : 1696035851	USD	USD
CJ	Walgreens	2568723	2016-03-16	19.57	0.78	2319558	Walgreens.com Purchase : 1696116852	USD	USD
