CJ	advertiser-name	cid	event-date	sale-amount	commission-amount	sid	description	sale-currency	commission-currency
CJ	Family Christian Stores	1191236	2015-09-04	11.99	0.72	5866062	Sale : 1630045738	USD	USD
CJ	Hammacher Schlemmer	1472343	2015-09-15	34.95	2.80	5928871	Hammacher Online Item Purchase : 1630118888	USD	USD
