CJ	advertiser-name	cid	event-date	sale-amount	commission-amount	sid	description	sale-currency	commission-currency
CJ	Indigo Books & Music	1666237	2015-05-31	-20.27	-1.01	5857847	Item based Sale : 1596009502	USD	USD
CJ	123Inkjets.com	418963	2015-06-08	56.95	15.95	2696866	123inkjets.com Sale : 1598728530	USD	USD
CJ	Home Depot	1461363	2015-06-08	241.73	7.25	256134	Advanced Product Order Confirmation : 1598861244	USD	USD
CJ	GiftCardMall.com	2697082	2015-06-08	25.00	0.50	2921641	Giftcardmall.com Purchase  : 1598862441	USD	USD
