CJ	advertiser-name	cid	event-date	sale-amount	commission-amount	sid	description	sale-currency	commission-currency
CJ	One.com	1838477	2014-10-01	1.23	18.46	5044522	Online Sale Small : 1510293215	USD	USD
CJ	One.com	1838477	2014-10-01	1.23	18.46	5044522	Online Sale Small : 1510293847	USD	USD
CJ	One.com	1838477	2014-10-01	1.23	18.46	5044522	Online Sale Small : 1510294564	USD	USD
CJ	One.com	1838477	2014-10-01	1.23	18.46	5044522	Online Sale Small : 1510303848	USD	USD
CJ	One.com	1838477	2014-10-01	1.23	18.46	5044522	Online Sale Small : 1510303374	USD	USD
CJ	One.com	1838477	2014-10-01	1.23	18.46	5044522	Online Sale Small : 1510303646	USD	USD
