CJ	advertiser-name	cid	event-date	sale-amount	commission-amount	sid	description	sale-currency	commission-currency
CJ	AliExpress by Alibaba.com	2270432	2013-12-23	28.47	0.28	810096	Completed Transaction (Item-based) : 1421102515	USD	USD
CJ	StrawberryNET.com - Skincare-Makeup-Cosmetics-Fragrance	1876573	2013-12-25	62.77	1.57	4361878	Returning Sales : 1421311834	USD	USD
