CJ	advertiser-name	cid	event-date	sale-amount	commission-amount	sid	description	sale-currency	commission-currency
CJ	Sears	3449087	2015-04-08	15.00	0.45	5812993	Sears Purchase : 1578998296	USD	USD
CJ	123Inkjets.com	418963	2015-04-08	59.85	16.76	158518	123inkjets.com Sale : 1579255665	USD	USD
