CJ	advertiser-name	cid	event-date	sale-amount	commission-amount	sid	description	sale-currency	commission-currency
CJ	InterContinental Hotels Group	1675692	2015-09-03	2056.32	61.69	2973827	Completed Stay Item Based : 1633952641	USD	USD
CJ	Home Depot	1461363	2015-09-28	118.93	3.57	256134	Buy Online Pickup in Store  : 1634096415	USD	USD
