CJ	advertiser-name	cid	event-date	sale-amount	commission-amount	sid	description	sale-currency	commission-currency
CJ	Accorhotels.com Europe & ROW	1911025	2013-11-12	121.59	1.82	4238692	Booking - ibis budget : 1398855897	USD	USD
CJ	Accorhotels.com Europe & ROW	1911025	2013-11-12	184.40	2.77	4238692	Booking - ibis budget : 1398856425	USD	USD
CJ	Accorhotels.com Europe & ROW	1911025	2013-11-12	53.45	0.80	4238692	Booking - Formule 1 : 1398856720	USD	USD
CJ	Accorhotels.com Europe & ROW	1911025	2013-11-12	188.40	2.83	4238692	Booking - ibis budget : 1398857075	USD	USD
CJ	StrawberryNET.com - Skincare-Makeup-Cosmetics-Fragrance	1876573	2013-11-12	57.80	1.45	4361878	Returning Sales : 1399327577	USD	USD
