CJ	advertiser-name	cid	event-date	sale-amount	commission-amount	sid	description	sale-currency	commission-currency
CJ	Coupons.com	1614570	2013-05-17	0.00	0.40	158518	COUPONS.COM PRINT SESSION : 1331366858	USD	USD
CJ	Coupons.com	1614570	2013-05-17	0.00	0.40	158518	COUPONS.COM PRINT SESSION : 1331366948	USD	USD
CJ	Staples	1631023	2013-05-17	54.97	1.65	3123711	Shipped Online Sale : 1331431120	USD	USD
