CJ	advertiser-name	cid	event-date	sale-amount	commission-amount	sid	description	sale-currency	commission-currency
CJ	One.com	1838477	2014-09-02	1.27	19.11	5044522	Online Sale Small : 1501715199	USD	USD
CJ	One.com	1838477	2014-09-02	1.27	19.11	5044522	Online Sale Small : 1501717107	USD	USD
CJ	One.com	1838477	2014-09-02	1.27	19.11	5044522	Online Sale Small : 1501719905	USD	USD
CJ	One.com	1838477	2014-09-02	1.27	19.11	5044522	Online Sale Small : 1501739820	USD	USD
CJ	One.com	1838477	2014-09-02	1.27	19.11	5044522	Online Sale Small : 1501743271	USD	USD
CJ	One.com	1838477	2014-09-02	1.27	19.11	5664181	Online Sale Small : 1501750183	USD	USD
CJ	One.com	1838477	2014-09-02	1.27	19.11	5664181	Online Sale Small : 1501757777	USD	USD
CJ	One.com	1838477	2014-09-02	1.27	19.11	5664181	Online Sale Small : 1501759131	USD	USD
CJ	One.com	1838477	2014-09-02	1.27	19.11	5668417	Online Sale Small : 1501856573	USD	USD
CJ	One.com	1838477	2014-09-02	1.27	19.11	5668417	Online Sale Small : 1501858804	USD	USD
CJ	One.com	1838477	2014-09-02	1.27	19.11	5668417	Online Sale Small : 1501860083	USD	USD
CJ	One.com	1838477	2014-09-02	1.27	19.11	5668417	Online Sale Small : 1501862561	USD	USD
CJ	One.com	1838477	2014-09-02	1.27	19.11	5668417	Online Sale Small : 1501863928	USD	USD
