CJ	advertiser-name	cid	event-date	sale-amount	commission-amount	sid	description	sale-currency	commission-currency
CJ	InterContinental Hotels Group	1675692	2014-05-19	553.20	0.00	4035815	Gross Booking Item based : 1469108330	USD	USD
CJ	Lowe's	3379721	2014-05-19	39.00	1.56	256134	Lowes Shopping Cart Purchase : 1469393610	USD	USD
