CJ	advertiser-name	cid	event-date	sale-amount	commission-amount	sid	description	sale-currency	commission-currency
CJ	Jabong - IN	3625330	2013-08-14	73.64	3.50	3125044	Jabong_Sale : 1361308192	USD	USD
CJ	Home Depot	1461363	2013-08-14	169.00	5.07	5363583	Advanced Product Order Confirmation : 1361470809	USD	USD
CJ	Overstock.com	2626374	2013-08-13	53.99	0.54	3518354	Sale : 1361474070	USD	USD
