CJ	advertiser-name	cid	event-date	sale-amount	commission-amount	sid	description	sale-currency	commission-currency
CJ	Expedia, Inc	1874913	2013-08-03	18.00	0.00	3925389	Expedia Activities : 1357668143	USD	USD
CJ	Expedia, Inc	1874913	2013-08-03	15.00	0.00	3925389	Expedia Car : 1357668144	USD	USD
