CJ	advertiser-name	cid	event-date	sale-amount	commission-amount	sid	description	sale-currency	commission-currency
CJ	Staples	1631023	2013-10-18	25.99	0.78	3312445	Shipped Online Sale : 1388909293	USD	USD
CJ	Staples	1631023	2013-10-18	59.99	1.20	3312445	Shipped Online Sale : 1388911978	USD	USD
