CJ	advertiser-name	cid	event-date	sale-amount	commission-amount	sid	description	sale-currency	commission-currency
CJ	One.com	1838477	2014-08-16	1.30	19.45	5044522	Online Sale Small : 1496376644	USD	USD
CJ	LightInTheBox	2683708	2014-08-16	7.98	0.64	5652060	Lightinthebox.com Purchase : 1496449599	USD	USD
