CJ	advertiser-name	cid	event-date	sale-amount	commission-amount	sid	description	sale-currency	commission-currency
CJ	Newegg.com	1807847	2015-04-18	297.00	2.97	5833725	Newegg Online Purchase - New Customer : 1582544499	USD	USD
CJ	Newegg.com	1807847	2015-04-18	371805.97	3718.06	5833725	Newegg Online Purchase - New Customer : 1582544498	USD	USD
