CJ	advertiser-name	cid	event-date	sale-amount	commission-amount	sid	description	sale-currency	commission-currency
CJ	LightInTheBox	2683708	2015-11-19	3.99	0.40	5888419	Lightinthebox.com Purchase : 1650359769	USD	USD
CJ	Travelocity	1549809	2015-11-19	107.57	0.00	158518	Car Booking : 1650598558	USD	USD
