CJ	advertiser-name	cid	event-date	sale-amount	commission-amount	sid	description	sale-currency	commission-currency
CJ	123Inkjets.com	418963	2015-11-16	97.94	27.42	178744	123inkjets.com - Return Customer Purchase : 1649216243	USD	USD
CJ	123Inkjets.com	418963	2015-11-16	17.99	5.04	2965876	123inkjets.com - Return Customer Purchase : 1649468277	USD	USD
