CJ	advertiser-name	cid	event-date	sale-amount	commission-amount	sid	description	sale-currency	commission-currency
CJ	Lowe's	3379721	2014-09-01	82.35	0.82	3077498	Lowes Shopping Cart Purchase : 1501330456	USD	USD
CJ	One.com	1838477	2014-09-01	1.27	19.11	5044522	Online Sale Small : 1501420341	USD	USD
CJ	One.com	1838477	2014-09-01	1.27	19.11	5044522	Online Sale Small : 1501421769	USD	USD
CJ	One.com	1838477	2014-09-01	1.27	19.11	5044522	Online Sale Small : 1501425601	USD	USD
CJ	One.com	1838477	2014-09-01	1.27	19.11	5044522	Online Sale Small : 1501427425	USD	USD
CJ	One.com	1838477	2014-09-01	1.27	19.11	5044522	Online Sale Small : 1501430959	USD	USD
