CJ	advertiser-name	cid	event-date	sale-amount	commission-amount	sid	description	sale-currency	commission-currency
CJ	Constant Contact Affiliate Program	693552	2014-08-11	0.00	5.00	4964149	Lead : 1495022743	USD	USD
CJ	LightInTheBox	2683708	2014-08-12	3.99	0.32	810096	Lightinthebox.com Purchase : 1495060452	USD	USD
