CJ	advertiser-name	cid	event-date	sale-amount	commission-amount	sid	description	sale-currency	commission-currency
CJ	Expedia, Inc	1874913	2015-08-10	124.00	0.00	4846625	Expedia Car : 1619593637	USD	USD
CJ	Expedia, Inc	1874913	2015-08-10	124.00	0.00	4846625	Expedia Car : 1619594030	USD	USD
CJ	LightInTheBox	2683708	2015-08-12	4.97	0.50	5888419	Lightinthebox.com Purchase : 1619647867	USD	USD
