CJ	advertiser-name	cid	event-date	sale-amount	commission-amount	sid	description	sale-currency	commission-currency
CJ	Skype Affiliate Program	1562723	2014-01-23	13.54	3.39	4730665	Skype Credit : 1430796102	USD	USD
CJ	123Inkjets.com	418963	2014-01-23	37.78	10.58	2957593	123inkjets.com Sale : 1430847776	USD	USD
