CJ	advertiser-name	cid	event-date	sale-amount	commission-amount	sid	description	sale-currency	commission-currency
CJ	Family Christian Stores	1191236	2014-06-20	19.99	1.20	2771552	Sale : 1480408529	USD	USD
CJ	FlowerDelivery.com	1407656	2014-06-25	83.99	16.80	714798	Sale : 1480418425	USD	USD
CJ	Skype Affiliate Program	1562723	2014-06-25	2.30	0.57	4443840	Skype Subscriptions : 1480466671	USD	USD
CJ	Skype Affiliate Program	1562723	2014-06-25	10.00	2.50	2319558	Skype Credit : 1480637014	USD	USD
