CJ	advertiser-name	cid	event-date	sale-amount	commission-amount	sid	description	sale-currency	commission-currency
CJ	FragranceX.com	1024283	2013-10-16	124.96	12.50	4361878	Sale : 1387703532	USD	USD
CJ	Home Depot	1461363	2013-10-16	24.97	0.75	2913613	Advanced Product Order Confirmation : 1387892743	USD	USD
