CJ	advertiser-name	cid	event-date	sale-amount	commission-amount	sid	description	sale-currency	commission-currency
CJ	PETCO Animal Supplies	1711708	2017-11-10	30.06	2.40	1316764	PETCO Existing Customer Sale : 1915269575	USD	USD
CJ	Overstock.com	2626374	2017-11-10	80.01	2.63	3519735	Sale : 1915355480	USD	USD
