Program;Program;Time;;EPI;Event;;Commission
Name;ID;of event;Order nr;EPI 1;Status;Order Value;Publisher
Housetrip;233000;30/07/13 10:02:19 CEST;;5189869;A;0.00;0.00
Housetrip;233000;30/07/13 10:05:52 CEST;;5189869;A;0.00;0.00
Housetrip;233000;30/07/13 10:07:03 CEST;;5189869;A;0.00;0.00
Housetrip;233000;30/07/13 10:11:00 CEST;;5189869;A;0.00;0.00
Housetrip;233000;30/07/13 10:13:31 CEST;;5189869;A;0.00;0.00
Housetrip;233000;30/07/13 10:38:09 CEST;;5189869;A;0.00;0.00
Housetrip;233000;30/07/13 10:42:11 CEST;;5189869;A;0.00;0.00
Housetrip;233000;30/07/13 10:42:21 CEST;;5189869;A;0.00;0.00
Housetrip;233000;30/07/13 10:43:12 CEST;;5189869;A;0.00;0.00
Bonprix;23165;30/07/13 19:27:41 CEST;1074549542716038158_3768104139;4449429;P;32.71;1.80
Foto.com BE;59980;30/07/13 21:12:40 CEST;16606715;3218569;P;22.24;5.56
;;;;;;54.95;7.36
