Program;Program;Time;;EPI;Event;;Commission
Name;ID;of event;Order nr;EPI 1;Status;Order Value;Publisher
Bonprix;23165;06/11/13 00:50:59 CET;1593035784801388522_3940594726;4685377;P;27.27;1.50
Viking OfficeProducts;20104;06/11/13 12:40:02 CET;07141711-002061630;4064926;P;128.87;7.22
Euronics;190198;06/11/13 21:40:59 CET;510048953_0;5137489;P;353.47;7.07
;;;;;;509.60;15.79
