TD	Name	ID	of event	Order Value	Publisher	EPI 1	Order nr	BLANK	BLANK
TD	Monclick	29519	2013-12-18	16585.30	580.49	4562317	YA12357128		
TD	Euronics	190198	2013-12-18	10790.88	215.82	4562317	510065850_0		
TD	OlivieroWeb Store	15238	2013-12-18	12538.22	1253.82	4562317	447824		
TD	Expedia	54495	2013-12-18	458.25	6.87	4045728	16688052		
TD	Bottega Verde	58965	2013-12-18	50.08	5.01	5502899	2366469		
TD	Marco Polo Shop	81995	2013-12-18	4354.66	54.43	5589898	10387333		
TD	Viking OfficeProducts	20104	2013-12-18	108.97	6.10	3599226	07139208-002074217		
TD	Marco Polo Shop	81995	2013-12-18	4690.17	46.90	5605461	10387339		
TD	Marco Polo Shop	81995	2013-12-18	8355.88	135.78	5605464	10387412		
TD	Marco Polo Shop	81995	2013-12-18	14809.64	259.17	5605458	10387416		
