TD	Name	ID	of event	Order Value	Publisher	EPI 1	Order nr	BLANK	BLANK
TD	Volagratis	23294	2013-09-10	611.67	10.66	3956467	215619840		
TD	Volagratis	23294	2013-09-10	510.08	10.66	3956467	215625559		
TD	Volagratis	23294	2013-09-10	267.34	10.66	3956467	215627423		
TD	Volagratis	23294	2013-09-10	0.00	10.66	3956467	215634857		
TD	Volagratis	23294	2013-09-10	539.52	10.66	3956467	215636709		
