Program;Program;Time;;EPI;Event;;Commission
Name;ID;of event;Order nr;EPI 1;Status;Order Value;Publisher
LoveTheSign IT;228210;14/08/13 01:46:41 CEST;;5580895;A;0.00;1.05
LoveTheSign IT;228210;14/08/13 12:33:36 CEST;;5588949;A;0.00;1.05
LoveTheSign IT;228210;14/08/13 23:04:37 CEST;;5262962;A;0.00;1.05
;;;;;;0.00;3.14
