TD	Name	ID	of event	Order Value	Publisher	EPI 1	Order nr	BLANK	BLANK
TD	LoveTheSign IT	228210	2013-09-12	0.00	1.07	4486134			
TD	Monclick	29519	2013-09-12	1211.05	36.33	4473406	YA12289550		
TD	LoveTheSign IT	228210	2013-09-12	0.00	1.07	5590776			
TD	Virgin Atlantic	207528	2013-09-13	424.23	8.48	686568	FQ7N4E		
TD	Marco Polo Shop	81995	2013-09-13	1329.49	13.29	4812347	10263006		
TD	Viking OfficeProducts	20104	2013-09-13	274.10	24.12	5501291	07034440-002044705		
TD	Viking OfficeProducts	20104	2013-09-13	174.74	15.38	4010318	07108439-002044712		
TD	Tesco.com	898	2013-09-13	11.63	0.00	3208178	3213112		
TD	Viking OfficeProducts	20104	2013-09-13	117.95	10.38	3599226	07139208-002044736		
TD	Marco Polo Shop	81995	2013-09-13	531.53	5.32	5589545	10263200		
TD	Marco Polo Shop	81995	2013-09-13	1597.26	19.97	5588448	10263376		
TD	LoveTheSign IT	228210	2013-09-13	0.00	1.07	5588979			
