TD	Name	ID	of event	Order Value	Publisher	EPI 1	Order nr	BLANK	BLANK
TD	Zalando IT	225484	2013-06-10	21.52	1.72	4458874	10410001895374		
TD	Monclick	29519	2013-06-10	88.35	3.05	5215023	YA12240788		
TD	Euronics	190198	2013-06-10	41.67	0.83	4896538	505426663_0		
