Program;Program;Time;;EPI;Event;;Commission
Name;ID;of event;Order nr;EPI 1;Status;Order Value;Publisher
LoveTheSign IT;228210;27/06/13 09:39:10 CEST;;4676439;A;0.00;1.04
LoveTheSign IT;228210;27/06/13 14:07:27 CEST;;4145984;A;0.00;1.04
LoveTheSign IT;228210;27/06/13 16:56:59 CEST;;3925462;A;0.00;1.04
;;;;;;0.00;3.13
