Program;Program;Time;;EPI;Event;;Commission
Name;ID;of event;Order nr;EPI 1;Status;Order Value;Publisher
Webster;49068;27/10/13 15:34:26 CET;131027-197501017;4010318;P;41.87;2.51
Pixmania IT;15812;27/10/13 17:04:27 CET;ccl1500570320;5123909;P;612.60;18.38
PrezzoFelice.it;201974;27/10/13 18:17:24 CET;1029a8327e0b93710640ed9160d73b;5523742;P;16.69;2.42
PrezzoFelice.it;201974;27/10/13 18:47:25 CET;102112cf0405899cfbd24f33cf7d49;5523742;P;21.14;3.07
dmail.it;825;27/10/13 20:25:43 CET;165354408;5460028;A;31.75;2.54
;;;;;;724.06;28.92
