Program;Program;Time;;EPI;Event;;Commission
Name;ID;of event;Order nr;EPI 1;Status;Order Value;Publisher
ToysCenter IT;225458;24/09/13 07:20:05 CEST;446712;5564653;P;15.97;0.96
Marco Polo Shop;81995;24/09/13 15:32:00 CEST;10275696;5588448;P;4,862.37;72.94
Marco Polo Shop;81995;24/09/13 15:32:00 CEST;10275696;5588448;P;4,862.37;60.78
Marco Polo Shop;81995;24/09/13 15:32:02 CEST;10275696;5588448;P;4,862.37;97.25
Marco Polo Shop;81995;24/09/13 15:39:56 CEST;10275697;5588647;P;1,436.06;28.72
Marco Polo Shop;81995;24/09/13 15:45:14 CEST;10275722;5589898;P;1,320.17;13.20
Marco Polo Shop;81995;24/09/13 15:55:03 CEST;10275727;5589545;P;1,293.52;16.17
;;;;;;18,652.84;290.01
