TD	Name	ID	of event	Order Value	Publisher	EPI 1	Order nr	BLANK	BLANK
TD	Marco Polo Shop	81995	2013-06-28	167.97	1.68	4927904	10183136		
TD	Webster	49068	2013-06-28	32.64	1.96	4583858	130628-108260012		
