Program;Program;Time;;EPI;Event;;Commission
Name;ID;of event;Order nr;EPI 1;Status;Order Value;Publisher
Zalando IT;225484;26/06/13 10:18:20 CEST;10410001989819;5554340;P;76.41;6.11
Zalando IT;225484;26/06/13 17:24:32 CEST;10410001992564;5554340;P;84.48;6.76
bonprix fr;23164;26/06/13 18:06:42 CEST;1385954708122288193_3716783782;5552506;P;1,171.82;58.59
Webster;49068;26/06/13 23:23:38 CEST;130626-817482079;4145984;P;17.06;1.02
;;;;;;1,349.77;72.49
