Program;Program;Time;;EPI;Event;;Commission
Name;ID;of event;Order nr;EPI 1;Status;Order Value;Publisher
dmail.it;825;11/11/13 16:43:35 CET;165722188;3780122;A;55.11;4.41
Yves Rocher;45922;11/11/13 18:28:33 CET;911646;3218569;P;24.16;4.83
;;;;;;79.26;9.24
