Program;Program;Time;;EPI;Event;;Commission
Name;ID;of event;Order nr;EPI 1;Status;Order Value;Publisher
Webster;49068;18/06/13 09:44:56 CEST;130618-130420076;3545041;P;80.40;4.82
Zalando IT;225484;18/06/13 11:58:19 CEST;10401001944140;3991612;P;26.90;2.15
Expedia;54495;18/06/13 12:27:51 CEST;13948948;4843751;A;2,534.04;38.01
Zalando IT;225484;18/06/13 17:30:26 CEST;10410001946696;5554340;P;107.61;8.61
;;;;;;2,748.95;53.60
