Program;Program;Time;;EPI;Event;;Commission
Name;ID;of event;Order nr;EPI 1;Status;Order Value;Publisher
Volagratis;23294;16/10/13 11:37:54 CEST;220487833;4449429;A;350.43;14.02
Expedia;54495;16/10/13 14:26:50 CEST;15913224;4685377;A;691.55;10.37
Viking OfficeProducts;20104;16/10/13 20:56:43 CEST;07186395-002055659;3523213;P;20.45;1.80
;;;;;;1,062.43;26.19
