TD	Name	ID	of event	Order Value	Publisher	EPI 1	Order nr	BLANK	BLANK
TD	Yves Rocher	45922	2013-12-30	27.40	5.48	3218569	921453		
TD	Yves Rocher	45922	2013-12-30	30.07	6.01	3218569	921491		
TD	Yves Rocher	45922	2013-12-30	55.42	11.08	3218569	921506		
