Program;Program;Time;;EPI;Event;;Commission
Name;ID;of event;Order nr;EPI 1;Status;Order Value;Publisher
Marco Polo Shop;81995;18/11/13 17:08:50 CET;10333780;5605464;P;1,198.23;23.96
Marco Polo Shop;81995;18/11/13 17:21:00 CET;10333811;5605461;P;1,989.78;19.90
Marco Polo Shop;81995;18/11/13 17:32:29 CET;10333817;5605458;P;1,828.60;27.43
Marco Polo Shop;81995;18/11/13 17:46:35 CET;10333872;5588647;P;1,895.47;18.95
Marco Polo Shop;81995;18/11/13 17:54:49 CET;10333878;5588448;P;2,422.40;24.22
Marco Polo Shop;81995;18/11/13 17:54:50 CET;10333878;5588448;P;2,422.40;48.45
Marco Polo Shop;81995;18/11/13 17:54:51 CET;10333878;5588448;P;2,422.40;30.28
Marco Polo Shop;81995;18/11/13 18:02:39 CET;10333932;5589898;P;1,783.70;17.84
Marco Polo Shop;81995;18/11/13 18:02:39 CET;10333932;5589898;P;1,783.70;22.30
Marco Polo Shop;81995;18/11/13 18:08:05 CET;10333936;5219444;P;1,880.60;37.61
Marco Polo Shop;81995;18/11/13 18:08:08 CET;10333936;5219444;P;1,880.60;18.81
LoveTheSign IT;228210;18/11/13 22:29:42 CET;;5436644;A;0.00;1.09
;;;;;;21,507.87;290.84
