TD	Name	ID	of event	Order Value	Publisher	EPI 1	Order nr	BLANK	BLANK
TD	PrezzoFelice.it	201974	2013-05-11	0.00	0.91	4743498			
TD	Viking OfficeProducts	20104	2013-05-11	128.35	11.29	4042916	07148730-002016658		
