TD	Name	ID	of event	Order Value	Publisher	EPI 1	Order nr	BLANK	BLANK
TD	Monclick	29519	2013-07-09	97.99	3.3	5386030	YA12258658		
TD	Webster	49068	2013-07-09	39.62	2.38	4010318	130709-773711015		
TD	dmail.it	825	2013-07-09	32.68	2.61	5353311	163684413		
