TD	Name	ID	of event	Order Value	Publisher	EPI 1	Order nr	BLANK	BLANK
TD	Marco Polo Shop	81995	2013-12-19	942.97	11.79	5219444	10388794		
TD	Marco Polo Shop	81995	2013-12-19	1819.84	36.40	5588448	10388797		
TD	Marco Polo Shop	81995	2013-12-19	15165.78	170.62	4812347	10388871		
TD	Expedia	54495	2013-12-19	125.15	10.01	4045728	16704969		
