Program;Program;Time;;EPI;Event;;Commission
Name;ID;of event;Order nr;EPI 1;Status;Order Value;Publisher
Volagratis;23294;02/07/13 06:28:12 CEST;202704092;4622134;A;382.32;10.55
Bonprix;23165;02/07/13 18:16:08 CEST;1656008083568658129_3725806818;4865622;P;23.69;1.30
;;;;;;406.01;11.85
