Program;Program;Time;;EPI;Event;;Commission
Name;ID;of event;Order nr;EPI 1;Status;Order Value;Publisher
Marco Polo Shop;81995;22/12/13 19:31:19 CET;10393393;5589898;P;1,407.04;28.14
Marco Polo Shop;81995;22/12/13 19:31:20 CET;10393393;5589898;P;1,407.04;14.07
Marco Polo Shop;81995;22/12/13 19:56:44 CET;10393399;5611896;P;9,932.90;124.16
Marco Polo Shop;81995;22/12/13 19:56:45 CET;10393399;5611896;P;9,932.90;99.33
Marco Polo Shop;81995;22/12/13 20:29:57 CET;10393491;5611909;P;978.05;19.56
Yves Rocher;45922;22/12/13 21:54:16 CET;920165;3218569;P;15.18;3.04
;;;;;;23,673.08;288.30
