Program;Program;Time;;EPI;Event;;Commission
Name;ID;of event;Order nr;EPI 1;Status;Order Value;Publisher
LoveTheSign IT;228210;12/11/13 13:19:55 CET;;5603980;A;0.00;1.09
ToysCenter IT;225458;12/11/13 14:33:33 CET;449378;5564653;P;62.08;3.72
Expedia;54495;12/11/13 20:56:02 CET;16250170;4045728;A;113.82;1.71
Expedia;54495;12/11/13 22:44:51 CET;16251435;4045728;A;143.52;2.15
Expedia;54495;12/11/13 22:51:02 CET;16250250;4045728;A;82.09;1.23
Expedia;54495;12/11/13 22:55:44 CET;16251562;4045728;A;243.58;19.49
Expedia;54495;12/11/13 23:06:58 CET;16251653;4045728;A;3,269.29;49.04
;;;;;;3,914.37;78.43
