Program;Program;Time;;EPI;Event;;Commission
Name;ID;of event;Order nr;EPI 1;Status;Order Value;Publisher
Abbonamenti.it;205460;19/09/13 01:18:44 CEST;1697835;4736305;P;46.63;4.66
Wehkamp;18158;19/09/13 14:46:34 CEST;81996076_2;4629741;P;458.54;36.68
Wehkamp;18158;19/09/13 14:46:34 CEST;81996076_1;4629741;P;126.58;6.33
Volagratis;23294;19/09/13 15:19:53 CEST;216885669;3956467;A;199.42;10.66
Foto.com BE;59980;19/09/13 20:44:17 CEST;908650215;3218569;P;18.84;4.71
;;;;;;850.01;63.04
