Program;Program;Time;;EPI;Event;;Commission
Name;ID;of event;Order nr;EPI 1;Status;Order Value;Publisher
Marco Polo Shop;81995;25/08/13 10:51:17 CEST;10239568;5589898;P;1,479.05;14.79
;;;;;;1,479.05;14.79
