Program;Program;Time;;EPI;Event;;Commission
Name;ID;of event;Order nr;EPI 1;Status;Order Value;Publisher
Marco Polo Shop;81995;14/09/13 10:46:57 CEST;10264135;5588647;P;797.96;7.98
LoveTheSign IT;228210;14/09/13 11:26:59 CEST;;5593649;A;0.00;1.07
Marco Polo Shop;81995;14/09/13 16:31:37 CEST;10264561;5589898;P;546.18;10.92
;;;;;;1,344.15;19.97
