Program;Program;Time;;EPI;Event;;Commission
Name;ID;of event;Order nr;EPI 1;Status;Order Value;Publisher
Marco Polo Shop;81995;04/01/14 15:36:38 CET;10408380;5588644;P;2,191.05;27.39
Marco Polo Shop;81995;04/01/14 15:43:26 CET;10408382;5604241;P;1,641.37;16.41
Marco Polo Shop;81995;04/01/14 15:47:09 CET;10408383;5611894;P;1,161.84;11.62
Marco Polo Shop;81995;04/01/14 15:50:45 CET;10408385;5611909;P;4,920.00;73.80
Bonprix;23165;04/01/14 18:46:42 CET;1388149877888888266_4056691595;4852960;P;109.57;6.03
;;;;;;10,023.82;135.25
