TD	Name	ID	of event	Order Value	Publisher	EPI 1	Order nr	BLANK	BLANK
TD	Marco Polo Shop	81995	2013-06-29	2061.09	41.22	4812347	10183940		
TD	Webster	49068	2013-06-29	22.39	1.34	4791403	130629-113031019		
