Program;Program;Time;;EPI;Event;;Commission
Name;ID;of event;Order nr;EPI 1;Status;Order Value;Publisher
Zalando IT;225484;10/06/13 16:01:48 CEST;10410001895374;4458874;P;21.52;1.72
Monclick ;29519;10/06/13 21:48:40 CEST;YA12240788;5215023;A;2.76;0.10
Monclick ;29519;10/06/13 21:48:41 CEST;YA12240788;5215023;A;11.21;0.34
Monclick ;29519;10/06/13 21:48:41 CEST;YA12240788;5215023;A;17.32;0.61
Monclick ;29519;10/06/13 21:48:41 CEST;YA12240788;5215023;A;57.06;2.00
Euronics;190198;10/06/13 22:01:15 CEST;505426663_0;4896538;P;41.67;0.83
;;;;;;151.54;5.59
